%YAML 1.1
%TAG !u! tag:unity3d.com,2011:
--- !u!1045 &1
EditorBuildSettings:
  m_ObjectHideFlags: 0
  serializedVersion: 2
  m_Scenes:
  - enabled: 1
    path: Assets/Scenes/MainMenu.unity
    guid: 848028e73db06914e852ee2594f56710
  - enabled: 1
    path: Assets/Scenes/Gameplay.unity
    guid: b5d3b8a3ed5cbba46adb8db05ca0608f
  m_configObjects: {}
